#######################################
# Syntax Coloring Map PSC
#######################################

#######################################
# Datatypes (KEYWORD1)
#######################################


#######################################
# Methods and Functions (KEYWORD2)
#######################################

#######################################
# Constants (LITERAL1)
#######################################
